<svg xmlns="http://www.w3.org/2000/svg" xmlns:xlink="http://www.w3.org/1999/xlink" width="500" zoomAndPan="magnify" viewBox="0 0 375 374.999991" height="500" preserveAspectRatio="xMidYMid meet" version="1.0">
  <defs>
    <clipPath id="c356e694f6">
      <path d="M 9.671875 9.671875 L 365.171875 9.671875 L 365.171875 365.171875 L 9.671875 365.171875 Z M 9.671875 9.671875 " clip-rule="nonzero" />
    </clipPath>
    <clipPath id="be0bdbd474">
      <path d="M 79.167969 135 L 294.417969 135 L 294.417969 254.25 L 79.167969 254.25 Z M 79.167969 135 " clip-rule="nonzero" />
    </clipPath>
  </defs>
  <rect x="-37.5" width="450" fill="none" y="-37.499999" height="449.999989" fill-opacity="1" />
  <rect x="-37.5" width="450" fill="none" y="-37.499999" height="449.999989" fill-opacity="1" />
  <rect x="-37.5" width="450" fill="none" y="-37.499999" height="449.999989" fill-opacity="1" />
  <g clip-path="url(#c356e694f6)">
    <path fill="#FF9C00" d="M 365.171875 187.421875 C 365.171875 190.328125 365.101562 193.238281 364.957031 196.144531 C 364.8125 199.046875 364.601562 201.949219 364.316406 204.84375 C 364.03125 207.738281 363.675781 210.625 363.246094 213.503906 C 362.820312 216.378906 362.324219 219.246094 361.753906 222.097656 C 361.1875 224.953125 360.550781 227.789062 359.84375 230.609375 C 359.136719 233.433594 358.363281 236.234375 357.515625 239.019531 C 356.671875 241.804688 355.761719 244.5625 354.78125 247.304688 C 353.800781 250.042969 352.753906 252.753906 351.640625 255.441406 C 350.527344 258.128906 349.347656 260.789062 348.105469 263.417969 C 346.859375 266.046875 345.554688 268.644531 344.183594 271.210938 C 342.8125 273.777344 341.378906 276.308594 339.882812 278.804688 C 338.386719 281.296875 336.832031 283.753906 335.214844 286.171875 C 333.597656 288.59375 331.925781 290.96875 330.191406 293.304688 C 328.457031 295.644531 326.667969 297.9375 324.824219 300.183594 C 322.976562 302.433594 321.078125 304.636719 319.125 306.789062 C 317.171875 308.945312 315.167969 311.050781 313.109375 313.109375 C 311.050781 315.167969 308.945312 317.171875 306.789062 319.125 C 304.636719 321.078125 302.433594 322.976562 300.183594 324.824219 C 297.9375 326.667969 295.644531 328.457031 293.304688 330.191406 C 290.96875 331.925781 288.59375 333.597656 286.171875 335.214844 C 283.753906 336.832031 281.296875 338.386719 278.804688 339.882812 C 276.308594 341.378906 273.777344 342.8125 271.210938 344.183594 C 268.644531 345.554688 266.046875 346.859375 263.417969 348.105469 C 260.789062 349.347656 258.128906 350.527344 255.441406 351.640625 C 252.753906 352.753906 250.042969 353.800781 247.304688 354.78125 C 244.5625 355.761719 241.804688 356.671875 239.019531 357.515625 C 236.234375 358.363281 233.433594 359.136719 230.609375 359.84375 C 227.789062 360.550781 224.953125 361.1875 222.097656 361.753906 C 219.246094 362.324219 216.378906 362.820312 213.503906 363.246094 C 210.625 363.675781 207.738281 364.03125 204.84375 364.316406 C 201.949219 364.601562 199.046875 364.8125 196.144531 364.957031 C 193.238281 365.101562 190.328125 365.171875 187.421875 365.171875 C 184.511719 365.171875 181.605469 365.101562 178.699219 364.957031 C 175.792969 364.8125 172.894531 364.601562 170 364.316406 C 167.101562 364.03125 164.21875 363.675781 161.339844 363.246094 C 158.460938 362.820312 155.597656 362.324219 152.742188 361.753906 C 149.890625 361.1875 147.054688 360.550781 144.230469 359.84375 C 141.410156 359.136719 138.605469 358.363281 135.824219 357.515625 C 133.039062 356.671875 130.277344 355.761719 127.539062 354.78125 C 124.800781 353.800781 122.085938 352.753906 119.398438 351.640625 C 116.710938 350.527344 114.054688 349.347656 111.421875 348.105469 C 108.792969 346.859375 106.195312 345.554688 103.628906 344.183594 C 101.066406 342.8125 98.535156 341.378906 96.039062 339.882812 C 93.542969 338.386719 91.085938 336.832031 88.667969 335.214844 C 86.25 333.597656 83.871094 331.925781 81.535156 330.191406 C 79.199219 328.457031 76.90625 326.667969 74.65625 324.824219 C 72.410156 322.976562 70.207031 321.078125 68.050781 319.125 C 65.894531 317.171875 63.789062 315.167969 61.734375 313.109375 C 59.675781 311.050781 57.671875 308.945312 55.71875 306.789062 C 53.761719 304.636719 51.863281 302.433594 50.019531 300.183594 C 48.171875 297.9375 46.382812 295.644531 44.652344 293.304688 C 42.917969 290.96875 41.242188 288.59375 39.628906 286.171875 C 38.011719 283.753906 36.457031 281.296875 34.960938 278.800781 C 33.464844 276.308594 32.03125 273.777344 30.660156 271.210938 C 29.289062 268.644531 27.980469 266.046875 26.738281 263.417969 C 25.492188 260.789062 24.316406 258.128906 23.203125 255.441406 C 22.089844 252.753906 21.042969 250.042969 20.0625 247.304688 C 19.082031 244.5625 18.167969 241.804688 17.324219 239.019531 C 16.480469 236.234375 15.703125 233.433594 14.996094 230.609375 C 14.292969 227.789062 13.652344 224.953125 13.085938 222.097656 C 12.519531 219.246094 12.023438 216.378906 11.59375 213.503906 C 11.167969 210.625 10.8125 207.738281 10.527344 204.84375 C 10.242188 201.949219 10.027344 199.046875 9.886719 196.144531 C 9.742188 193.238281 9.671875 190.328125 9.671875 187.421875 C 9.671875 184.511719 9.742188 181.605469 9.886719 178.699219 C 10.027344 175.792969 10.242188 172.894531 10.527344 170 C 10.8125 167.101562 11.167969 164.21875 11.59375 161.339844 C 12.023438 158.460938 12.519531 155.597656 13.085938 152.742188 C 13.652344 149.890625 14.292969 147.054688 14.996094 144.230469 C 15.703125 141.410156 16.480469 138.605469 17.324219 135.824219 C 18.167969 133.039062 19.082031 130.277344 20.0625 127.539062 C 21.042969 124.800781 22.089844 122.085938 23.203125 119.398438 C 24.316406 116.710938 25.492188 114.054688 26.738281 111.421875 C 27.980469 108.792969 29.289062 106.195312 30.660156 103.628906 C 32.03125 101.066406 33.464844 98.535156 34.960938 96.039062 C 36.457031 93.542969 38.011719 91.085938 39.628906 88.667969 C 41.242188 86.25 42.917969 83.871094 44.652344 81.535156 C 46.382812 79.199219 48.171875 76.90625 50.019531 74.65625 C 51.863281 72.410156 53.761719 70.207031 55.71875 68.050781 C 57.671875 65.894531 59.675781 63.789062 61.734375 61.734375 C 63.789062 59.675781 65.894531 57.671875 68.050781 55.71875 C 70.207031 53.761719 72.410156 51.863281 74.65625 50.019531 C 76.90625 48.171875 79.199219 46.382812 81.535156 44.652344 C 83.871094 42.917969 86.25 41.242188 88.667969 39.628906 C 91.085938 38.011719 93.542969 36.457031 96.039062 34.960938 C 98.535156 33.464844 101.066406 32.03125 103.628906 30.660156 C 106.195312 29.289062 108.792969 27.980469 111.421875 26.738281 C 114.054688 25.492188 116.710938 24.316406 119.398438 23.203125 C 122.085938 22.089844 124.800781 21.042969 127.539062 20.0625 C 130.277344 19.082031 133.039062 18.167969 135.824219 17.324219 C 138.605469 16.480469 141.410156 15.703125 144.230469 14.996094 C 147.054688 14.292969 149.890625 13.652344 152.742188 13.085938 C 155.597656 12.519531 158.460938 12.023438 161.339844 11.59375 C 164.21875 11.167969 167.101562 10.8125 170 10.527344 C 172.894531 10.242188 175.792969 10.027344 178.699219 9.886719 C 181.605469 9.742188 184.511719 9.671875 187.421875 9.671875 C 190.328125 9.671875 193.238281 9.742188 196.144531 9.886719 C 199.046875 10.027344 201.949219 10.242188 204.84375 10.527344 C 207.738281 10.8125 210.625 11.167969 213.503906 11.59375 C 216.378906 12.023438 219.246094 12.519531 222.097656 13.085938 C 224.953125 13.652344 227.789062 14.292969 230.609375 14.996094 C 233.433594 15.703125 236.234375 16.480469 239.019531 17.324219 C 241.804688 18.167969 244.5625 19.082031 247.304688 20.0625 C 250.042969 21.042969 252.753906 22.089844 255.441406 23.203125 C 258.128906 24.316406 260.789062 25.492188 263.417969 26.738281 C 266.046875 27.980469 268.644531 29.289062 271.210938 30.660156 C 273.777344 32.03125 276.308594 33.464844 278.804688 34.960938 C 281.296875 36.457031 283.753906 38.011719 286.171875 39.628906 C 288.59375 41.242188 290.96875 42.917969 293.304688 44.652344 C 295.644531 46.382812 297.9375 48.171875 300.183594 50.019531 C 302.433594 51.863281 304.636719 53.761719 306.789062 55.71875 C 308.945312 57.671875 311.050781 59.675781 313.109375 61.734375 C 315.167969 63.789062 317.171875 65.894531 319.125 68.050781 C 321.078125 70.207031 322.976562 72.410156 324.824219 74.65625 C 326.667969 76.90625 328.457031 79.199219 330.191406 81.535156 C 331.925781 83.871094 333.597656 86.25 335.214844 88.667969 C 336.832031 91.085938 338.386719 93.542969 339.882812 96.039062 C 341.378906 98.535156 342.8125 101.066406 344.183594 103.628906 C 345.554688 106.195312 346.859375 108.792969 348.105469 111.421875 C 349.347656 114.054688 350.527344 116.710938 351.640625 119.398438 C 352.753906 122.085938 353.800781 124.800781 354.78125 127.539062 C 355.761719 130.277344 356.671875 133.039062 357.515625 135.824219 C 358.363281 138.605469 359.136719 141.410156 359.84375 144.230469 C 360.550781 147.054688 361.1875 149.890625 361.753906 152.742188 C 362.324219 155.597656 362.820312 158.460938 363.246094 161.339844 C 363.675781 164.21875 364.03125 167.101562 364.316406 170 C 364.601562 172.894531 364.8125 175.792969 364.957031 178.699219 C 365.101562 181.605469 365.171875 184.511719 365.171875 187.421875 Z M 365.171875 187.421875 " fill-opacity="1" fill-rule="nonzero" />
  </g>
  <g clip-path="url(#be0bdbd474)">
    <path fill="#ffffff" d="M 37.496094 141.65625 C 37.496094 121.101562 48.625 102.027344 66.539062 91.871094 L 158.25 39.910156 C 166.851562 35.046875 176.636719 32.46875 186.53125 32.46875 C 196.429688 32.46875 206.214844 35.046875 214.8125 39.933594 L 306.527344 91.871094 C 324.4375 102.027344 335.566406 121.101562 335.566406 141.65625 L 335.566406 244.636719 C 335.566406 265.191406 324.4375 284.269531 306.527344 294.421875 L 214.8125 346.359375 C 197.617188 356.113281 175.46875 356.113281 158.25 346.359375 L 66.539062 294.421875 C 48.625 284.269531 37.496094 265.191406 37.496094 244.636719 Z M 60.894531 304.421875 L 152.609375 356.359375 C 162.929688 362.207031 174.664062 365.300781 186.53125 365.300781 C 198.398438 365.300781 210.132812 362.207031 220.453125 356.359375 L 312.167969 304.421875 C 333.664062 292.226562 347.03125 269.316406 347.03125 244.636719 L 347.03125 141.65625 C 347.03125 116.976562 333.664062 94.070312 312.167969 81.898438 L 220.453125 29.9375 C 199.808594 18.234375 173.253906 18.234375 152.609375 29.9375 L 60.894531 81.898438 C 39.398438 94.070312 26.03125 116.976562 26.03125 141.65625 L 26.03125 244.636719 C 26.03125 269.316406 39.398438 292.226562 60.894531 304.421875 " fill-opacity="1" fill-rule="nonzero" />
    <path fill="#ffffff" d="M 66.15625 141.65625 C 66.15625 131.414062 71.710938 121.910156 80.644531 116.84375 L 172.359375 64.90625 C 176.722656 62.417969 181.628906 61.183594 186.53125 61.183594 C 191.433594 61.183594 196.339844 62.417969 200.707031 64.90625 L 292.417969 116.84375 C 301.355469 121.910156 306.90625 131.414062 306.90625 141.65625 L 306.90625 244.636719 C 306.90625 254.882812 301.355469 264.386719 292.417969 269.453125 L 200.707031 321.410156 C 191.949219 326.34375 181.113281 326.34375 172.359375 321.410156 L 80.644531 269.453125 C 71.710938 264.386719 66.15625 254.882812 66.15625 244.636719 Z M 75 279.425781 L 166.714844 331.386719 C 172.828125 334.859375 179.679688 336.585938 186.53125 336.585938 C 193.382812 336.585938 200.234375 334.859375 206.347656 331.386719 L 298.0625 279.425781 C 310.601562 272.34375 318.371094 259.003906 318.371094 244.636719 L 318.371094 141.65625 C 318.371094 127.289062 310.601562 113.953125 298.0625 106.867188 L 206.347656 54.90625 C 194.121094 47.980469 178.941406 47.980469 166.714844 54.90625 L 75 106.867188 C 62.484375 113.953125 54.691406 127.289062 54.691406 141.65625 L 54.691406 244.636719 C 54.691406 259.003906 62.484375 272.34375 75 279.425781 " fill-opacity="1" fill-rule="nonzero" />
  </g>
  <path fill="#ffffff" d="M 94.816406 244.792969 C 97.976562 244.792969 100.550781 242.214844 100.550781 239.054688 L 100.550781 171.539062 L 135.546875 241.632812 C 136.53125 243.605469 138.546875 244.792969 140.675781 244.792969 C 141.121094 244.792969 141.546875 244.75 141.996094 244.636719 C 144.570312 244.03125 146.40625 241.722656 146.40625 239.054688 L 146.40625 147.238281 C 146.40625 144.078125 143.832031 141.5 140.675781 141.5 C 137.515625 141.5 134.941406 144.078125 134.941406 147.238281 L 134.941406 214.757812 L 99.945312 144.660156 C 98.757812 142.308594 96.117188 141.050781 93.496094 141.65625 C 90.921875 142.261719 89.085938 144.570312 89.085938 147.238281 L 89.085938 239.054688 C 89.085938 242.214844 91.660156 244.792969 94.816406 244.792969 " fill-opacity="1" fill-rule="nonzero" />
  <path fill="#ffffff" d="M 169.335938 244.792969 C 172.492188 244.792969 175.066406 242.214844 175.066406 239.054688 L 175.066406 198.886719 L 197.996094 198.886719 C 201.152344 198.886719 203.726562 196.308594 203.726562 193.148438 C 203.726562 189.988281 201.152344 187.410156 197.996094 187.410156 L 175.066406 187.410156 L 175.066406 152.976562 L 215.191406 152.976562 C 218.351562 152.976562 220.925781 150.398438 220.925781 147.238281 C 220.925781 144.078125 218.351562 141.5 215.191406 141.5 L 169.335938 141.5 C 166.179688 141.5 163.601562 144.078125 163.601562 147.238281 L 163.601562 239.054688 C 163.601562 242.214844 166.179688 244.792969 169.335938 244.792969 " fill-opacity="1" fill-rule="nonzero" />
  <path fill="#ffffff" d="M 232.390625 152.976562 L 249.585938 152.976562 L 249.585938 239.054688 C 249.585938 242.214844 252.160156 244.792969 255.316406 244.792969 C 258.476562 244.792969 261.050781 242.214844 261.050781 239.054688 L 261.050781 152.976562 L 278.246094 152.976562 C 281.402344 152.976562 283.976562 150.398438 283.976562 147.238281 C 283.976562 144.078125 281.402344 141.5 278.246094 141.5 L 232.390625 141.5 C 229.230469 141.5 226.65625 144.078125 226.65625 147.238281 C 226.65625 150.398438 229.230469 152.976562 232.390625 152.976562 " fill-opacity="1" fill-rule="nonzero" />
</svg>