<?xml version="1.0" encoding="UTF-8"?>
<svg id="Ebene_1"
	xmlns="http://www.w3.org/2000/svg" width="27.93mm" height="27.93mm" viewBox="0 0 79.18 79.18">
	<path d="M39.59,7.14c10.57,0,11.82,.04,16,.23,10.73,.49,15.74,5.58,16.23,16.23,.19,4.17,.23,5.43,.23,16s-.04,11.82-.23,16c-.49,10.64-5.49,15.74-16.23,16.23-4.18,.19-5.42,.23-16,.23s-11.82-.04-16-.23c-10.76-.49-15.74-5.61-16.23-16.23-.19-4.17-.23-5.42-.23-16s.04-11.82,.23-16c.49-10.65,5.49-15.74,16.23-16.23,4.18-.19,5.43-.23,16-.23Zm0-7.14c-10.75,0-12.1,.05-16.32,.24C8.89,.9,.9,8.88,.24,23.27c-.19,4.23-.24,5.57-.24,16.32s.05,12.1,.24,16.32c.66,14.38,8.64,22.37,23.03,23.03,4.23,.19,5.57,.24,16.32,.24s12.1-.05,16.32-.24c14.37-.66,22.38-8.64,23.03-23.03,.19-4.22,.24-5.57,.24-16.32s-.05-12.1-.24-16.32C78.3,8.9,70.31,.9,55.92,.24,51.69,.05,50.34,0,39.59,0Zm0,19.26c-11.23,0-20.33,9.1-20.33,20.33s9.1,20.33,20.33,20.33,20.33-9.1,20.33-20.33-9.1-20.33-20.33-20.33Zm0,33.53c-7.29,0-13.2-5.91-13.2-13.2s5.91-13.2,13.2-13.2,13.2,5.91,13.2,13.2-5.91,13.2-13.2,13.2ZM60.73,13.71c-2.63,0-4.75,2.13-4.75,4.75s2.13,4.75,4.75,4.75,4.75-2.13,4.75-4.75-2.12-4.75-4.75-4.75Z"/>
</svg>