<?xml version="1.0" encoding="utf-8"?>
<!-- Generator: Adobe Illustrator 26.3.1, SVG Export Plug-In . SVG Version: 6.00 Build 0)  -->
<svg version="1.1" id="Ebene_1" xmlns="http://www.w3.org/2000/svg" xmlns:xlink="http://www.w3.org/1999/xlink" x="0px" y="0px"
	 width="64.3px" height="74.2px" viewBox="0 0 64.3 74.2" style="enable-background:new 0 0 64.3 74.2;" xml:space="preserve" fill="white">
<g>
	<path d="M63.2,23v46.3c0,2.1-1.7,3.9-3.9,3.9h-54c-2.1,0-3.9-1.7-3.9-3.9V5.1c0-2.1,1.7-3.9,3.9-3.9h36c2.1,0,5.1,1.2,6.6,2.7
		l12.5,12.5C62,17.9,63.2,20.9,63.2,23z M58.1,26.9H41.4c-2.1,0-3.9-1.7-3.9-3.9V6.3H6.7V68h51.4V26.9z M18.2,32h28.3
		c0.7,0,1.3,0.6,1.3,1.3v2.6c0,0.7-0.6,1.3-1.3,1.3H18.2c-0.7,0-1.3-0.6-1.3-1.3v-2.6C16.9,32.6,17.5,32,18.2,32z M47.8,43.6v2.6
		c0,0.7-0.6,1.3-1.3,1.3H18.2c-0.7,0-1.3-0.6-1.3-1.3v-2.6c0-0.7,0.6-1.3,1.3-1.3h28.3C47.2,42.3,47.8,42.9,47.8,43.6z M47.8,53.9
		v2.6c0,0.7-0.6,1.3-1.3,1.3H18.2c-0.7,0-1.3-0.6-1.3-1.3v-2.6c0-0.7,0.6-1.3,1.3-1.3h28.3C47.2,52.6,47.8,53.2,47.8,53.9z
		 M42.7,21.8h15.1c-0.2-0.7-0.6-1.4-0.9-1.6L44.3,7.5c-0.3-0.3-1-0.6-1.6-0.9V21.8z"/>
</g>
</svg>
