<svg
    xmlns="http://www.w3.org/2000/svg"
    xmlns:xlink="http://www.w3.org/1999/xlink" width="250" zoomAndPan="magnify" viewBox="0 0 187.5 187.499992" height="250" preserveAspectRatio="xMidYMid meet" version="1.0">
    <defs>
        <clipPath id="9dc40ab2fd">
            <path d="M 70 68 L 117 68 L 117 161.9375 L 70 161.9375 Z M 70 68 " clip-rule="nonzero"/>
        </clipPath>
        <clipPath id="698a9e9485">
            <path d="M 11.695312 23.9375 L 58 23.9375 L 58 161.9375 L 11.695312 161.9375 Z M 11.695312 23.9375 " clip-rule="nonzero"/>
        </clipPath>
        <clipPath id="f212712390">
            <path d="M 129 102 L 175.945312 102 L 175.945312 161.9375 L 129 161.9375 Z M 129 102 " clip-rule="nonzero"/>
        </clipPath>
    </defs>
    <g clip-path="url(#9dc40ab2fd)">
        <path fill="#000" d="M 113.882812 161.9375 L 73.566406 161.9375 C 71.929688 161.9375 70.585938 160.589844 70.585938 159.054688 L 70.585938 70.929688 C 70.585938 69.390625 71.929688 68.046875 73.566406 68.046875 L 113.882812 68.046875 C 115.515625 68.046875 116.863281 69.390625 116.863281 70.929688 L 116.863281 159.148438 C 116.863281 160.589844 115.515625 161.9375 113.882812 161.9375 Z M 76.550781 156.265625 L 111.089844 156.265625 L 111.089844 73.90625 L 76.550781 73.90625 Z M 76.550781 156.265625 " fill-opacity="1" fill-rule="evenodd"/>
    </g>
    <g clip-path="url(#698a9e9485)">
        <path fill="#000" d="M 54.996094 161.9375 L 14.683594 161.9375 C 13.046875 161.9375 11.699219 160.589844 11.699219 159.054688 L 11.699219 26.914062 C 11.699219 25.28125 13.046875 23.9375 14.683594 23.9375 L 54.996094 23.9375 C 56.632812 23.9375 57.882812 25.28125 57.882812 26.914062 L 57.882812 159.054688 C 57.789062 160.589844 56.632812 161.9375 54.996094 161.9375 Z M 17.472656 156.265625 L 52.015625 156.265625 L 52.015625 29.796875 L 17.472656 29.796875 Z M 17.472656 156.265625 " fill-opacity="1" fill-rule="evenodd"/>
    </g>
    <g clip-path="url(#f212712390)">
        <path fill="#000" d="M 172.957031 161.9375 L 132.644531 161.9375 C 131.007812 161.9375 129.660156 160.589844 129.660156 159.054688 L 129.660156 105.332031 C 129.660156 103.796875 131.007812 102.449219 132.644531 102.449219 L 172.957031 102.449219 C 174.59375 102.449219 175.941406 103.796875 175.941406 105.332031 L 175.941406 159.148438 C 175.941406 160.589844 174.59375 161.9375 172.957031 161.9375 Z M 135.53125 156.265625 L 170.167969 156.265625 L 170.167969 108.214844 L 135.53125 108.214844 Z M 135.53125 156.265625 " fill-opacity="1" fill-rule="evenodd"/>
    </g>
</svg>