<svg xmlns="http://www.w3.org/2000/svg" class="ionicon" viewBox="0 0 512 512">
  <path fill="none" stroke="#BF7B54" stroke-linecap="round" stroke-linejoin="round" stroke-width="20" d="M48 320h64l64-256 64 384 64-224 32 96h64" />
  <circle cx="432" cy="320" r="32" fill="none" stroke="#BF7B54" stroke-linecap="round" stroke-linejoin="round" stroke-width="20" />
</svg>