<svg width="86" height="52" viewBox="0 0 86 52" fill="none" xmlns="http://www.w3.org/2000/svg">
<rect x="1.9361" y="2.20545" width="82.4282" height="47.7086" stroke="black" stroke-width="2.59459" stroke-linejoin="round"/>
<path d="M50.5801 16H71.9134" stroke="black" stroke-width="2.59459" stroke-linecap="round"/>
<path d="M50.5801 26.0597H71.9134" stroke="black" stroke-width="2.59459" stroke-linecap="round"/>
<path d="M50.5801 36.1183H71.9134" stroke="black" stroke-width="2.59459" stroke-linecap="round"/>
<path fill-rule="evenodd" clip-rule="evenodd" d="M25.7186 39.535C33.2704 39.535 39.3923 33.1302 39.3923 25.2295C39.3923 17.3288 33.2704 10.924 25.7186 10.924C18.1668 10.924 12.0449 17.3288 12.0449 25.2295C12.0449 33.1302 18.1668 39.535 25.7186 39.535Z" stroke="black" stroke-width="2.59459"/>
<path d="M11.6738 24.1476V22.8503H10.3765V24.1476H11.6738ZM23.4813 24.1476H24.7786V22.8503H23.4813V24.1476ZM23.4813 26.3098V27.6071H24.7786V26.3098H23.4813ZM11.6738 26.3098H10.3765V27.6071H11.6738V26.3098ZM27.716 24.1479V22.8507H26.4187V24.1479H27.716ZM39.7647 24.1479H41.062V22.8507H39.7647V24.1479ZM39.7647 26.3101V27.6074H41.062V26.3101H39.7647ZM27.716 26.3101H26.4187V27.6074H27.716V26.3101ZM12.7549 22.8503H11.6738V25.4449H12.7549V22.8503ZM22.4002 22.8503H12.7549V25.4449H22.4002V22.8503ZM23.4813 22.8503H22.4002V25.4449H23.4813V22.8503ZM24.7786 26.3098V24.1476H22.184V26.3098H24.7786ZM22.4002 27.6071H23.4813V25.0125H22.4002V27.6071ZM12.7549 27.6071H22.4002V25.0125H12.7549V27.6071ZM11.6738 27.6071H12.7549V25.0125H11.6738V27.6071ZM10.3765 24.1476V26.3098H12.9711V24.1476H10.3765ZM28.7971 22.8507H27.716V25.4452H28.7971V22.8507ZM38.6836 22.8507H28.7971V25.4452H38.6836V22.8507ZM39.7647 22.8507H38.6836V25.4452H39.7647V22.8507ZM41.062 26.3101V24.1479H38.4674V26.3101H41.062ZM38.6836 27.6074H39.7647V25.0128H38.6836V27.6074ZM28.7971 27.6074H38.6836V25.0128H28.7971V27.6074ZM27.716 27.6074H28.7971V25.0128H27.716V27.6074ZM26.4187 24.1479V26.3101H29.0133V24.1479H26.4187Z" fill="black"/>
<path d="M25.7199 29.5565V39.0807" stroke="black" stroke-width="2.59459" stroke-linecap="square"/>
<path fill-rule="evenodd" clip-rule="evenodd" d="M25.7204 28.8064C27.4257 28.8064 28.808 27.4053 28.808 25.6771C28.808 23.9488 27.4257 22.5477 25.7204 22.5477C24.0152 22.5477 22.6328 23.9488 22.6328 25.6771C22.6328 27.4053 24.0152 28.8064 25.7204 28.8064Z" stroke="black" stroke-width="2.59459"/>
</svg>
