<?xml version="1.0" encoding="utf-8"?>
<!-- Generator: Adobe Illustrator 24.1.2, SVG Export Plug-In . SVG Version: 6.00 Build 0)  -->
<svg version="1.1" id="Ebene_1" xmlns="http://www.w3.org/2000/svg" xmlns:xlink="http://www.w3.org/1999/xlink" x="0px" y="0px"
	 width="150px" height="130px" viewBox="0 0 150 130" style="enable-background:new 0 0 150 130;" xml:space="preserve">
<style type="text/css">
	.st0{display:none;fill:#CCCCCC;}
	.st1{fill:#733122;}
	.st2{fill:#011616;}
	.st3{fill:#BF7B54;}
	.st4{fill:#FFFFFF;}
</style>
<path class="st0" d="M23.5,40.8C28.4,19.5,68.9,24.6,63.3,51C58,75.6,18,64.9,23.5,40.8z"/>
<g>
	<path class="st1" d="M75,86.7C90.7,87,103.8,74,103.9,57.9c0.1-15.7-12.9-29-28.8-28.8c-16.3,0.1-28.4,13-28.8,28.3
		C46,73.4,59.2,87,75,86.7z"/>
	<path class="st2" d="M107.3,58.3c-0.3,4-0.9,8.8-3,13.4c-0.4,1-0.4,2.6,0.1,3.5c2.6,4.9,5.5,9.7,8.3,14.5c0.3,0.6,0.7,1.2,0.9,1.8
		c1.1,2.7-0.5,5-3.4,4.8c-2-0.1-3.9-0.5-5.8-0.9c-1.6-0.4-2.7-0.2-3.2,1.7c-0.4,1.6-1.1,3.1-1.7,4.7c-0.6,1.7-1.6,3.3-3.4,3.1
		c-1.3-0.1-2.7-1.3-3.5-2.4c-2.5-3.8-4.8-7.8-7-11.8c-0.8-1.4-1.6-1.7-3.1-1.4c-5,1.2-10,1.2-14.9,0c-1.5-0.3-2.3,0-3.1,1.4
		c-2.3,4.1-4.7,8.3-7.2,12.2c-1.9,3-4.9,2.7-6.4-0.6c-0.1-0.3-0.2-0.6-0.3-0.9c-0.6-1.6-1.3-3.1-1.7-4.7c-0.4-1.5-1.3-1.9-2.7-1.6
		c-1.6,0.3-3.2,0.6-4.9,0.9s-3.3,0.4-4.5-1.2c-1.3-1.8-0.4-3.3,0.5-4.8c2.6-4.5,5.2-9,7.8-13.5c1.2-2,1.4-3.5,0.4-5.8
		C39.1,56,45,38.2,59,30.1c15.2-8.8,34.4-4,43.5,11C105.6,46.1,107.3,51.5,107.3,58.3z M75.1,86.7C90.8,87,103.9,74,104,57.9
		c0.1-15.7-12.9-28.9-28.7-28.8c-16.3,0.1-28.4,13-28.8,28.3C46.1,73.4,59.3,87,75.1,86.7z M109.7,92.7c0.2-0.2,0.3-0.4,0.5-0.7
		c-2.9-5-5.8-10-8.5-14.7c-4.6,3.7-8.9,7.3-13.4,10.9c2.4,4,4.9,8.3,7.8,13.2c1.1-3,2.1-5.3,2.8-7.6c0.6-1.8,1.6-2.6,3.5-2.2
		C104.9,92,107.3,92.3,109.7,92.7z M54.4,101.5c2.9-4.9,5.4-9.3,7.7-13.2c-4.6-3.7-8.9-7.2-13.4-10.9c-2.7,4.8-5.6,9.7-8.4,14.7
		c0.2,0.2,0.4,0.4,0.6,0.6c2.5-0.4,5-0.7,7.5-1.1c1.7-0.3,2.7,0.4,3.2,2C52.3,96,53.2,98.4,54.4,101.5z"/>
	<path d="M85.7,76.2c-0.6-0.2-1.5-0.6-2.4-1.1c-1.9-1-3.9-2-5.7-3.3c-1.8-1.2-3.2-1.1-4.9,0c-2.1,1.4-4.4,2.5-6.6,3.7
		C64.6,76.4,63,76.3,62,75c-0.8-1.1-1.5-2.8-1.2-4c0.6-2.5,1.8-5,2.9-7.3c0.6-1.2,0.3-1.9-0.6-2.7c-1.7-1.6-3.3-3.3-4.9-5
		c-2.5-2.6-1.7-5.8,1.8-6.6c2-0.4,4-0.3,6.1-0.3c1.3,0,2.3-0.4,2.8-1.7c0.7-1.9,1.7-3.7,2.6-5.5c0.8-1.5,1.9-2.7,3.8-2.7
		c1.8,0,3.1,1,3.8,2.7c0.8,1.9,1.8,3.6,2.6,5.5c0.6,1.3,1.4,1.9,2.8,1.8c1.5-0.1,3,0,4.5,0c2.1,0.1,3.9,0.7,4.7,2.8
		c0.8,2-0.4,3.3-1.7,4.6c-1.5,1.5-3,3-4.6,4.4c-1,0.9-1.2,1.7-0.6,3c1,2.1,2,4.2,2.8,6.4C90.6,73.4,89,76.2,85.7,76.2z M60.4,52.7
		c-0.1,0.2-0.1,0.4-0.2,0.6c0.4,0.5,0.7,1,1.1,1.5c1.7,1.7,3.4,3.4,5.2,5c1.3,1.2,1.4,2.6,0.8,4.1c-0.9,2.1-1.8,4.1-2.7,6.2
		c-0.3,0.7-0.4,1.5-0.7,2.9c3.4-1.9,6.1-3.3,8.8-5c1.8-1.1,3.2-1.1,5,0c2.7,1.7,5.4,3.1,8.7,5c-0.3-1.4-0.4-2.1-0.6-2.7
		c-0.8-2-1.5-4-2.5-5.8c-1.1-2.1-0.7-3.6,1-5.1c1.7-1.4,3.1-3,4.6-4.6c0.4-0.5,0.7-1.1,1.4-2.1c-2.3,0-4-0.2-5.7,0
		c-3.3,0.4-5.2-0.8-6.2-4c-0.6-2-2-3.9-3-5.8c-0.2,0-0.5,0.1-0.7,0.1c-1.2,2.4-2.5,4.7-3.5,7.2c-0.8,1.9-1.9,2.7-3.9,2.5
		C65,52.6,62.7,52.7,60.4,52.7z"/>
	<g>
		<path class="st3" d="M54.4,101.5c2.9-4.9,5.4-9.3,7.7-13.2c-4.6-3.7-8.9-7.2-13.4-10.9c-2.7,4.8-5.6,9.7-8.4,14.7
			c0.2,0.2,0.4,0.4,0.6,0.6c2.5-0.4,5-0.7,7.5-1.1c1.7-0.3,2.7,0.4,3.2,2C52.3,96.1,53.2,98.4,54.4,101.5z"/>
	</g>
	<path class="st3" d="M109.7,92.7c0.2-0.2,0.3-0.4,0.5-0.7c-2.9-5-5.8-10-8.5-14.7c-4.6,3.7-8.9,7.3-13.4,10.9
		c2.4,4,4.9,8.3,7.8,13.2c1.1-3,2.1-5.3,2.8-7.6c0.6-1.8,1.6-2.6,3.5-2.2C104.8,92,107.3,92.3,109.7,92.7z"/>
	<g>
		<path class="st4" d="M60.5,52.8c-0.1,0.2-0.1,0.4-0.2,0.6c0.4,0.5,0.7,1,1.1,1.5c1.7,1.7,3.4,3.4,5.2,5c1.3,1.2,1.4,2.6,0.8,4.1
			c-0.9,2.1-1.8,4.1-2.7,6.2c-0.3,0.7-0.4,1.5-0.7,2.9c3.4-1.9,6.1-3.3,8.8-5c1.8-1.1,3.2-1.1,5,0c2.7,1.7,5.4,3.1,8.7,5
			c-0.3-1.4-0.4-2.1-0.6-2.7c-0.8-2-1.5-4-2.5-5.8c-1.1-2.1-0.7-3.6,1-5.1c1.7-1.4,3.1-3,4.6-4.6c0.4-0.5,0.7-1.1,1.4-2.1
			c-2.3,0-4-0.2-5.7,0c-3.3,0.4-5.2-0.8-6.2-4c-0.6-2-2-3.9-3-5.8c-0.2,0-0.5,0.1-0.7,0.1c-1.2,2.4-2.5,4.7-3.5,7.2
			c-0.8,1.9-1.9,2.7-3.9,2.5C65.1,52.7,62.8,52.8,60.5,52.8z"/>
	</g>
</g>
</svg>
