<svg xmlns="http://www.w3.org/2000/svg" class="ionicon" viewBox="0 0 512 512">
  <path d="M336 208v-95a80 80 0 00-160 0v95" fill="none" stroke="#BF7B54" stroke-linecap="round" stroke-linejoin="round" stroke-width="20" />
  <rect x="96" y="208" width="320" height="272" rx="48" ry="48" fill="none" stroke="#BF7B54" stroke-linecap="round" stroke-linejoin="round" stroke-width="20" />
</svg>