<svg xmlns="http://www.w3.org/2000/svg" class="ionicon" viewBox="0 0 512 512">
  <path fill="none" stroke="white" stroke-linecap="round" stroke-linejoin="round" stroke-width="20" d="M336 176L225.2 304 176 255.8" />
  <path d="M463.1 112.37C373.68 96.33 336.71 84.45 256 48c-80.71 36.45-117.68 48.33-207.1 64.37C32.7 369.13 240.58 457.79 256 464c15.42-6.21 223.3-94.87 207.1-351.63z" fill="none" stroke="white" stroke-linecap="round" stroke-linejoin="round" stroke-width="20" />
</svg>