<svg
	xmlns="http://www.w3.org/2000/svg"
	xmlns:xlink="http://www.w3.org/1999/xlink" width="30" zoomAndPan="magnify" viewBox="0 0 375 374.999991" height="30" preserveAspectRatio="xMidYMid meet" version="1.0"
	>
	<defs>
		<clipPath id="id1">
			<path fill="white" stroke-width="2" d="M 15.992188 15.992188 L 362.492188 15.992188 L 362.492188 362.492188 L 15.992188 362.492188 Z M 15.992188 15.992188 " clip-rule="nonzero"/>
		</clipPath>
	</defs>
	<rect x="-37.5" width="450" fill="none" y="-37.499999" height="449.999989" fill-opacity="1"/>
	<rect x="-37.5" width="450" fill="none" y="-37.499999" height="449.999989" fill-opacity="1"/>
	<rect x="-37.5" width="450" fill="none" y="-37.499999" height="449.999989" fill-opacity="1"/>
	<rect x="-37.5" width="450" fill="none" y="-37.499999" height="449.999989" fill-opacity="1"/>
	<g clip-path="url(#id1)">
		<path fill="white" stroke-width="2" d="M 189.246094 357.300781 C 96.578125 357.300781 21.1875 281.910156 21.1875 189.246094 C 21.1875 96.578125 96.578125 21.183594 189.246094 21.183594 C 281.910156 21.183594 357.300781 96.578125 357.300781 189.246094 C 357.300781 281.910156 281.910156 357.300781 189.246094 357.300781 Z M 189.246094 15.996094 C 93.714844 15.996094 15.996094 93.714844 15.996094 189.246094 C 15.996094 284.773438 93.714844 362.492188 189.246094 362.492188 C 284.773438 362.492188 362.492188 284.773438 362.492188 189.246094 C 362.492188 93.714844 284.773438 15.996094 189.246094 15.996094 " fill-opacity="1" fill-rule="nonzero"/>
	</g>
	<path fill="white" stroke-width="2" d="M 267.355469 111.132812 C 256.824219 88.671875 241.894531 70.964844 224.390625 60.6875 C 269.671875 73.082031 305.40625 108.8125 317.800781 154.097656 C 307.527344 136.597656 289.8125 121.664062 267.355469 111.132812 Z M 281.835938 218.015625 C 283.183594 208.730469 283.898438 199.109375 283.898438 189.246094 C 283.898438 179.382812 283.183594 169.757812 281.835938 160.472656 C 307.613281 168.269531 322.511719 178.949219 322.511719 189.246094 C 322.511719 199.542969 307.613281 210.222656 281.835938 218.015625 Z M 224.390625 317.800781 C 241.894531 307.523438 256.824219 289.8125 267.355469 267.351562 C 289.8125 256.824219 307.527344 241.890625 317.800781 224.390625 C 305.40625 269.671875 269.671875 305.402344 224.390625 317.800781 Z M 160.472656 281.835938 C 169.757812 283.183594 179.378906 283.898438 189.246094 283.898438 C 199.105469 283.898438 208.730469 283.183594 218.015625 281.835938 C 210.222656 307.609375 199.539062 322.511719 189.246094 322.511719 C 178.945312 322.511719 168.265625 307.609375 160.472656 281.835938 Z M 60.6875 224.390625 C 70.964844 241.890625 88.671875 256.824219 111.132812 267.351562 C 121.664062 289.8125 136.59375 307.523438 154.097656 317.800781 C 108.816406 305.402344 73.082031 269.671875 60.6875 224.390625 Z M 96.652344 160.472656 C 95.304688 169.757812 94.589844 179.382812 94.589844 189.246094 C 94.589844 199.109375 95.304688 208.730469 96.652344 218.015625 C 70.878906 210.222656 55.976562 199.542969 55.976562 189.246094 C 55.976562 178.949219 70.878906 168.265625 96.652344 160.472656 Z M 154.097656 60.6875 C 136.59375 70.960938 121.664062 88.671875 111.132812 111.132812 C 88.671875 121.664062 70.964844 136.597656 60.6875 154.097656 C 73.082031 108.8125 108.816406 73.082031 154.097656 60.6875 Z M 218.015625 96.648438 C 208.730469 95.304688 199.105469 94.589844 189.246094 94.589844 C 179.378906 94.589844 169.757812 95.304688 160.472656 96.648438 C 168.265625 70.875 178.945312 55.976562 189.246094 55.976562 C 199.539062 55.976562 210.222656 70.875 218.015625 96.648438 Z M 223.695312 97.554688 C 223.191406 95.800781 222.671875 94.074219 222.140625 92.390625 C 217.058594 76.351562 210.84375 64.625 203.949219 57.785156 C 226.6875 63.410156 246.554688 81.851562 260.082031 107.949219 C 248.875 103.367188 236.648438 99.832031 223.695312 97.554688 Z M 275.398438 153.296875 C 262.546875 149.992188 248.085938 147.488281 232.632812 145.855469 C 231 130.402344 228.496094 115.941406 225.191406 103.089844 C 238.992188 105.6875 251.890625 109.742188 263.496094 114.988281 C 268.746094 126.601562 272.800781 139.5 275.398438 153.296875 Z M 270.539062 118.40625 C 296.636719 131.933594 315.078125 151.800781 320.703125 174.539062 C 313.859375 167.644531 302.132812 161.425781 286.097656 156.347656 C 284.410156 155.816406 282.683594 155.300781 280.933594 154.796875 C 278.65625 141.839844 275.121094 129.617188 270.539062 118.40625 Z M 280.933594 223.691406 C 282.683594 223.191406 284.410156 222.671875 286.097656 222.136719 C 302.132812 217.0625 313.859375 210.84375 320.703125 203.949219 C 315.078125 226.6875 296.636719 246.554688 270.539062 260.082031 C 275.121094 248.871094 278.65625 236.648438 280.933594 223.691406 Z M 233.152344 151.089844 C 249.484375 152.855469 264.015625 155.558594 276.367188 158.90625 C 277.894531 168.652344 278.707031 178.808594 278.707031 189.246094 C 278.707031 199.675781 277.894531 209.832031 276.367188 219.585938 C 264.011719 222.929688 249.484375 225.632812 233.152344 227.398438 C 234.273438 215.148438 234.859375 202.339844 234.859375 189.246094 C 234.859375 176.148438 234.273438 163.339844 233.152344 151.089844 Z M 225.191406 275.398438 C 228.496094 262.546875 231 248.085938 232.632812 232.632812 C 248.085938 231 262.546875 228.496094 275.398438 225.191406 C 272.800781 238.988281 268.746094 251.886719 263.496094 263.496094 C 251.890625 268.746094 238.992188 272.800781 225.191406 275.398438 Z M 222.140625 286.097656 C 222.671875 284.414062 223.191406 282.6875 223.695312 280.929688 C 236.648438 278.652344 248.875 275.121094 260.082031 270.539062 C 246.554688 296.632812 226.6875 315.074219 203.949219 320.703125 C 210.84375 313.859375 217.058594 302.132812 222.140625 286.097656 Z M 151.089844 233.148438 C 163.339844 234.273438 176.148438 234.859375 189.246094 234.859375 C 202.339844 234.859375 215.148438 234.273438 227.398438 233.148438 C 225.632812 249.480469 222.929688 264.015625 219.582031 276.367188 C 209.835938 277.894531 199.675781 278.707031 189.246094 278.707031 C 178.808594 278.707031 168.652344 277.894531 158.90625 276.367188 C 155.558594 264.015625 152.855469 249.480469 151.089844 233.148438 Z M 154.796875 280.929688 C 155.300781 282.6875 155.816406 284.414062 156.347656 286.097656 C 161.425781 302.132812 167.644531 313.859375 174.539062 320.703125 C 151.800781 315.074219 131.933594 296.636719 118.40625 270.539062 C 129.613281 275.121094 141.839844 278.65625 154.796875 280.929688 Z M 103.089844 225.191406 C 115.941406 228.496094 130.402344 231 145.855469 232.632812 C 147.488281 248.085938 149.992188 262.546875 153.296875 275.398438 C 139.5 272.800781 126.597656 268.746094 114.988281 263.5 C 109.742188 251.886719 105.6875 238.988281 103.089844 225.191406 Z M 107.945312 260.082031 C 81.851562 246.554688 63.410156 226.6875 57.785156 203.949219 C 64.628906 210.84375 76.355469 217.0625 92.390625 222.136719 C 94.074219 222.671875 95.800781 223.191406 97.554688 223.691406 C 99.832031 236.648438 103.367188 248.875 107.945312 260.082031 Z M 97.558594 154.796875 C 95.800781 155.300781 94.074219 155.816406 92.390625 156.347656 C 76.355469 161.425781 64.628906 167.644531 57.785156 174.539062 C 63.410156 151.800781 81.851562 131.933594 107.945312 118.40625 C 103.367188 129.617188 99.832031 141.839844 97.558594 154.796875 Z M 145.339844 227.398438 C 129.003906 225.632812 114.472656 222.929688 102.121094 219.585938 C 100.59375 209.832031 99.78125 199.675781 99.78125 189.246094 C 99.78125 178.808594 100.59375 168.652344 102.121094 158.90625 C 114.472656 155.558594 129.003906 152.851562 145.339844 151.089844 C 144.214844 163.339844 143.628906 176.148438 143.628906 189.246094 C 143.628906 202.339844 144.214844 215.148438 145.339844 227.398438 Z M 153.300781 103.089844 C 149.992188 115.941406 147.488281 130.402344 145.855469 145.855469 C 130.402344 147.488281 115.941406 149.992188 103.089844 153.296875 C 105.6875 139.5 109.742188 126.601562 114.988281 114.988281 C 126.597656 109.742188 139.5 105.6875 153.300781 103.089844 Z M 156.347656 92.390625 C 155.816406 94.074219 155.300781 95.800781 154.796875 97.554688 C 141.839844 99.832031 129.613281 103.367188 118.40625 107.949219 C 131.933594 81.851562 151.800781 63.410156 174.539062 57.785156 C 167.644531 64.625 161.425781 76.351562 156.347656 92.390625 Z M 189.246094 143.628906 C 176.148438 143.628906 163.339844 144.214844 151.089844 145.335938 C 152.855469 129.007812 155.558594 114.472656 158.90625 102.121094 C 168.652344 100.59375 178.808594 99.78125 189.246094 99.78125 C 199.675781 99.78125 209.835938 100.59375 219.582031 102.121094 C 222.929688 114.472656 225.632812 129.007812 227.398438 145.335938 C 215.148438 144.214844 202.339844 143.628906 189.246094 143.628906 Z M 227.929688 150.558594 C 229.050781 162.589844 229.671875 175.53125 229.671875 189.246094 C 229.671875 202.960938 229.050781 215.902344 227.929688 227.925781 C 215.902344 229.050781 202.960938 229.671875 189.246094 229.671875 C 175.527344 229.671875 162.585938 229.050781 150.5625 227.925781 C 149.4375 215.902344 148.816406 202.960938 148.816406 189.246094 C 148.816406 175.53125 149.4375 162.589844 150.5625 150.558594 C 162.585938 149.4375 175.527344 148.816406 189.246094 148.816406 C 202.960938 148.816406 215.902344 149.4375 227.929688 150.558594 Z M 189.246094 50.785156 C 112.898438 50.785156 50.785156 112.898438 50.785156 189.246094 C 50.785156 265.589844 112.898438 327.699219 189.246094 327.699219 C 265.59375 327.699219 327.707031 265.589844 327.707031 189.246094 C 327.707031 112.898438 265.59375 50.785156 189.246094 50.785156 " fill-opacity="1" fill-rule="nonzero"/>
</svg>