<?xml version="1.0" encoding="utf-8"?>
<!-- Generator: Adobe Illustrator 27.5.0, SVG Export Plug-In . SVG Version: 6.00 Build 0)  -->
<svg version="1.1" id="Ebene_1" xmlns="http://www.w3.org/2000/svg" xmlns:xlink="http://www.w3.org/1999/xlink" x="0px" y="0px"
	 viewBox="0 0 512 512" style="enable-background:new 0 0 512 512;" xml:space="preserve">
<style type="text/css">
	.st0{fill:#252525;}
	.st1{fill:#54BF7B;stroke:#02FFA4;stroke-width:2.4223;}
	.st2{fill:#54BF7B;stroke:#02FFA4;stroke-width:2.3527;}
	.st3{font-family:'FredokaOne-Regular';}
	.st4{font-size:170.8019px;}
</style>
<rect x="-4" y="-3.1" class="st0" width="516" height="519"/>
<g>
	<path class="st1" d="M23.3,179.2h96.9c3.7,0,6.4,0.5,8.2,1.3c1.7,0.9,2.9,2.3,3.5,4.1c0.5,1.9,0.9,4.3,0.9,7.3
		c0,3.1-0.3,5.4-0.9,7.2c-0.5,1.8-1.6,3.1-3,3.8c-2.1,1-5,1.6-8.9,1.6H86.7v87.8c0,2.7-0.1,4.6-0.2,6c-0.2,1.3-0.7,2.7-1.6,4.5
		c-0.9,1.7-2.4,2.9-4.6,3.6c-2.2,0.7-5.1,1-8.7,1c-3.6,0-6.5-0.3-8.6-1c-2.1-0.7-3.7-1.9-4.5-3.6c-0.9-1.6-1.4-3.2-1.6-4.5
		c-0.2-1.3-0.2-3.4-0.2-6v-87.5H23c-3.7,0-6.4-0.5-8.2-1.3c-1.7-0.9-2.9-2.3-3.5-4.1c-0.5-1.9-0.9-4.3-0.9-7.3
		c0-3.1,0.3-5.4,0.9-7.2c0.5-1.8,1.6-3.1,3-3.8C16.5,179.7,19.4,179.2,23.3,179.2z"/>
	<path class="st1" d="M221.4,184.1c0.9-1.7,2.5-3,4.7-3.7c2.2-0.7,5-1,8.4-1c3.4,0,6,0.3,8,0.9c2,0.5,3.5,1.3,4.5,2.1
		c1,0.8,1.9,2,2.4,3.5c0.5,2,0.9,5,0.9,9.1v96.8c0,2.7-0.1,4.7-0.2,6c-0.2,1.3-0.7,2.9-1.6,4.6c-1.6,3.1-6.2,4.7-13.6,4.7
		c-8.2,0-12.9-2.1-14.3-6.4c-0.7-2-1-5-1-9.1v-35.4h-46.3v35.6c0,2.7-0.1,4.7-0.2,6s-0.7,2.9-1.6,4.6c-1.6,3.1-6.2,4.7-13.6,4.7
		c-8.2,0-12.9-2.1-14.3-6.4c-0.7-2-1-5-1-9.1v-96.9c0-2.7,0.1-4.7,0.2-6c0.2-1.3,0.7-2.9,1.6-4.6c1.6-3.1,6.2-4.7,13.6-4.7
		c8.2,0,12.9,2.1,14.5,6.4c0.5,2,0.9,5,0.9,9.1v35.6h46.2v-35.8c0-2.7,0.1-4.7,0.2-6C219.9,187.4,220.4,185.9,221.4,184.1z"/>
	<path class="st1" d="M342.9,242.5L378,281c3.9,4.4,6,8.2,6,11.1c0,3.1-2.3,6.6-6.7,10.7c-4.5,4.1-8.2,6.1-11.4,6.1
		c-3.1,0-6.7-2.4-10.7-7l-33.2-38l-33.2,38c-4.2,4.6-7.8,7-10.7,7s-6.7-2-11.4-6.2c-4.6-4.2-6.9-7.6-6.9-10.6c0-2.9,2-6.7,6.1-11.1
		l35.1-38.5L265.8,204c-4.1-4.3-6.1-8-6.1-11c0-3.1,2.3-6.6,6.8-10.7c4.5-4.2,8.3-6.2,11.4-6.2c3.1,0,6.7,2.4,10.7,7l33.2,38
		l33.2-38c4.2-4.6,7.8-7,10.7-7c3,0,6.7,2,11.2,6.1c4.5,4.1,6.8,7.7,6.8,10.8s-2,6.8-6,11L342.9,242.5z"/>
</g>
<text transform="matrix(1 0 0 1 386.0283 306.8099)" class="st2 st3 st4">C</text>
</svg>
