<?xml version="1.0" encoding="utf-8"?>
<!-- Generator: Adobe Illustrator 25.4.1, SVG Export Plug-In . SVG Version: 6.00 Build 0)  -->
<svg version="1.1" id="Ebene_1" xmlns="http://www.w3.org/2000/svg" xmlns:xlink="http://www.w3.org/1999/xlink" x="0px" y="0px"
	 viewBox="0 0 31 31" style="enable-background:new 0 0 31 31;" xml:space="preserve">
<style type="text/css">
	.st0{fill:none;}
	.st1{fill:none;stroke:#FFFFFF;stroke-width:0.8274;stroke-linecap:round;stroke-linejoin:round;}
</style>
<path class="st0" d="M15.5,31C24.1,31,31,24.1,31,15.5C31,6.9,24.1,0,15.5,0C6.9,0,0,6.9,0,15.5C0,24.1,6.9,31,15.5,31z"/>
<path class="st1" d="M5.8,25v-8.2l6.1-1.4"/>
<path class="st1" d="M12,25V6.5h7.2V25"/>
<path class="st1" d="M19.4,13l3.3-3.3l2.9,3.3v11.9"/>
<path class="st1" d="M14.3,4.4v2.1"/>
<path class="st1" d="M9.3,23.7H6.6"/>
<path class="st1" d="M9.3,19.5H6.6"/>
<path class="st1" d="M23.9,14.6h-2.7"/>
<path class="st1" d="M23.9,18.8h-2.7"/>
<path class="st1" d="M23.9,22.9h-2.7"/>
<path class="st1" d="M15.5,9.1v2.1"/>
<path class="st1" d="M15.5,16V18"/>
<path class="st1" d="M15.5,22.9V25"/>
</svg>
