<svg width="375" height="390" viewBox="0 0 375 390" fill="none" xmlns="http://www.w3.org/2000/svg">
<path fill-rule="evenodd" clip-rule="evenodd" d="M375 0.248192C302.845 74.6398 201.822 120.871 90 120.871C59.0447 120.871 28.9169 117.328 0 110.626V389.871H375V0.248192Z" fill="#BF7B54"/>
</svg>
