<?xml version="1.0" encoding="utf-8"?>
<!-- Generator: Adobe Illustrator 24.0.3, SVG Export Plug-In . SVG Version: 6.00 Build 0)  -->
<svg version="1.1" id="Ebene_1" xmlns="http://www.w3.org/2000/svg" xmlns:xlink="http://www.w3.org/1999/xlink" x="0px" y="0px"
	 viewBox="0 0 320 84" style="enable-background:new 0 0 320 84;" xml:space="preserve">
<style type="text/css">
	.st0{fill-rule:evenodd;clip-rule:evenodd;}
</style>
<title>Combined Shape</title>
<desc>Created with Sketch.</desc>
<path id="path-1_1_" class="st0" fill="#BF7B54" d="M320,0.3l0,83.7H0l0-51.4c27.1,2.8,55,4.2,83.5,4.2C170,36.8,250.9,23.5,320,0.3z"/>
</svg>
